{
  "project" : "service-reader",
  "envrionment" : "prod",
  "mysql_host": "172.16.3.3",
  "mysql_port" : 31831,
  "mysql_user": "root",
  "mysql_password" : "abz00ba1nc",
  "mysql_database" : "python_benchmark"
}
